%YAML 1.1
%TAG !u! tag:unity3d.com,2011:
--- !u!1045 &1
EditorBuildSettings:
  m_ObjectHideFlags: 0
  serializedVersion: 2
  m_Scenes:
  - enabled: 0
    path: Assets/default.unity
    guid: 85f2feedeaa8e1e46ab8195d297b4b26
  - enabled: 1
    path: Assets/AimTestScene.unity
    guid: 89b44656beff0b543bf0d7549dd016b2
